…
From this we can see that animation and drama are by far the highest
rated, followed by romance, comedy, crime, family, adventure, action,
mystery and thriller. Finally, horror is by far the lowest rated out of
the most common genres. To investigate how genre impacts US ratings we
are focusing on Italy, India, Japan and the US.

    ## # A tibble: 34 × 3
    ##   genre     n_Italy   prop
    ##   <chr>       <int>  <dbl>
    ## 1 Drama         258 0.281 
    ## 2 Comedy        241 0.263 
    ## 3 Crime          56 0.0611
    ## 4 Horror         35 0.0382
    ## 5 Biography      31 0.0338
    ## # … with 29 more rows

    ## # A tibble: 37 × 3
    ##   genre    n_India   prop
    ##   <chr>      <int>  <dbl>
    ## 1 Drama        916 0.257 
    ## 2 Comedy       557 0.156 
    ## 3 Action       553 0.155 
    ## 4 Romance      245 0.0686
    ## 5 Thriller     189 0.0529
    ## # … with 32 more rows

    ## # A tibble: 35 × 3
    ##   genre     n_Japan   prop
    ##   <chr>       <int>  <dbl>
    ## 1 Drama         258 0.183 
    ## 2 Action        188 0.133 
    ## 3 Animation     176 0.125 
    ## 4 Comedy        121 0.0859
    ## 5 Adventure      74 0.0525
    ## # … with 30 more rows

    ## # A tibble: 41 × 3
    ##   genre  n_USA   prop
    ##   <chr>  <int>  <dbl>
    ## 1 Drama   2447 0.197 
    ## 2 Comedy  1695 0.136 
    ## 3 Action  1069 0.0860
    ## 4 Horror   922 0.0741
    ## 5 Crime    709 0.0570
    ## # … with 36 more rows
…
