…
``` r
imdb_country <- imdb %>%
   mutate(country = sub("\\ ", "", country)) %>%
   separate_rows(country, sep = "\\,")
   
imdb_country %>%
   count(country) %>%
   arrange(desc(n))
```

    ## # A tibble: 366 × 2
    ##    country      n
    ##    <chr>    <int>
    ##  1 USA      33304
    ##  2 France    7374
    ##  3 UK        6905
    ##  4 India     6320
    ##  5 Italy     4695
    ##  6 Japan     3499
    ##  7 Canada    3318
    ##  8 Germany   3033
    ##  9 Spain     2391
    ## 10 HongKong  1527
    ## # … with 356 more rows
…
imdb_genre %>%
  group_by(genre) %>%
  summarise(
    mean_rating = mean(avg_vote, na.rm = TRUE),
    median_rating = median(avg_vote, na.rm = TRUE)
    ) %>%
  arrange(desc(mean_rating))
```

    ## # A tibble: 28 × 3
    ##    genre       mean_rating median_rating
    ##    <chr>             <dbl>         <dbl>
    ##  1 Documentary        7.3            7.3
    ##  2 Film               6.64           6.7
    ##  3 Noir               6.64           6.7
    ##  4 Biography          6.62           6.7
    ##  5 History            6.54           6.6
    ##  6 War                6.43           6.6
    ##  7 News               6.4            6.4
    ##  8 Animation          6.38           6.6
    ##  9 Musical            6.25           6.4
    ## 10 Music              6.24           6.4
    ## # … with 18 more rows
…
