Are US IMDb users biased against foreign movies?
…
Slide with Plot

imdb_country <- imdb %>%
   mutate(country = sub("\\ ", "", country)) %>%
   separate_rows(country, sep = "\\,")
   
imdb_country %>%
   count(country) %>%
   arrange(desc(n))

## # A tibble: 366 × 2
##    country      n
##    <chr>    <int>
##  1 USA      33304
##  2 France    7374
##  3 UK        6905
##  4 India     6320
##  5 Italy     4695
##  6 Japan     3499
##  7 Canada    3318
##  8 Germany   3033
##  9 Spain     2391
## 10 HongKong  1527
## # … with 356 more rows
…
